simulation/qsim/Assignment2.msim.vcd
$comment
	File created using the following command:
		vcd file Assignment2.msim.vcd -direction
$end
$date
	Mon Nov 15 16:32:07 2021
$end
$version
	ModelSim Version 2020.1
$end
$timescale
	1ps
$end

$scope module Assignment2_vlg_vec_tst $end
$var reg 1 ! B00 $end
$var reg 1 " B6 $end
$var reg 1 # B7 $end
$var reg 1 $ B8 $end
$var reg 1 % B9 $end
$var reg 1 & B11 $end
$var reg 1 ' CLK $end
$var reg 4 ( Val [3:0] $end
$var wire 1 ) A [3] $end
$var wire 1 * A [2] $end
$var wire 1 + A [1] $end
$var wire 1 , A [0] $end
$var wire 1 - B [3] $end
$var wire 1 . B [2] $end
$var wire 1 / B [1] $end
$var wire 1 0 B [0] $end
$var wire 1 1 C [3] $end
$var wire 1 2 C [2] $end
$var wire 1 3 C [1] $end
$var wire 1 4 C [0] $end

$scope module i1 $end
$var wire 1 5 gnd $end
$var wire 1 6 vcc $end
$var wire 1 7 unknown $end
$var tri1 1 8 devclrn $end
$var tri1 1 9 devpor $end
$var tri1 1 : devoe $end
$var wire 1 ; ~QUARTUS_CREATED_GND~I_combout $end
$var wire 1 < CLK~input_o $end
$var wire 1 = CLK~inputCLKENA0_outclk $end
$var wire 1 > B9~input_o $end
$var wire 1 ? B8~input_o $end
$var wire 1 @ B7~input_o $end
$var wire 1 A Val[3]~input_o $end
$var wire 1 B B6~input_o $end
$var wire 1 C B00~input_o $end
$var wire 1 D B11~input_o $end
$var wire 1 E inst|inst11~0_combout $end
$var wire 1 F inst|B|inst3~q $end
$var wire 1 G inst|inst13~0_combout $end
$var wire 1 H inst|C|inst3~q $end
$var wire 1 I inst|inst6|$00000|auto_generated|l1_w3_n0_mux_dataout~0_combout $end
$var wire 1 J inst|inst9|$00000|auto_generated|l1_w3_n0_mux_dataout~0_combout $end
$var wire 1 K Val[0]~input_o $end
$var wire 1 L inst|inst9|$00000|auto_generated|l1_w0_n0_mux_dataout~3_combout $end
$var wire 1 M inst|inst9|$00000|auto_generated|l1_w0_n0_mux_dataout~1_combout $end
$var wire 1 N inst|A|inst6~q $end
$var wire 1 O inst|inst9|$00000|auto_generated|l1_w0_n0_mux_dataout~4_combout $end
$var wire 1 P inst|C|inst6~q $end
$var wire 1 Q inst|inst9|$00000|auto_generated|l1_w0_n0_mux_dataout~2_combout $end
$var wire 1 R inst|inst3|inst6|$00000|auto_generated|l1_w0_n0_mux_dataout~0_combout $end
$var wire 1 S inst|B|inst6~q $end
$var wire 1 T inst|inst6|$00000|auto_generated|l1_w0_n0_mux_dataout~0_combout $end
$var wire 1 U Val[1]~input_o $end
$var wire 1 V inst|C|inst7~q $end
$var wire 1 W inst|B|inst7~q $end
$var wire 1 X inst|inst9|$00000|auto_generated|l1_w1_n0_mux_dataout~0_combout $end
$var wire 1 Y inst|inst9|$00000|auto_generated|l1_w0_n0_mux_dataout~0_combout $end
$var wire 1 Z inst|inst3|inst6|$00000|auto_generated|l1_w1_n0_mux_dataout~0_combout $end
$var wire 1 [ inst|A|inst7~q $end
$var wire 1 \ inst|inst6|$00000|auto_generated|l1_w1_n0_mux_dataout~0_combout $end
$var wire 1 ] Val[2]~input_o $end
$var wire 1 ^ inst|A|inst4~q $end
$var wire 1 _ inst|B|inst4~q $end
$var wire 1 ` inst|inst6|$00000|auto_generated|l1_w2_n0_mux_dataout~0_combout $end
$var wire 1 a inst|inst3|inst1|inst2|inst5~0_combout $end
$var wire 1 b inst|inst3|inst6|$00000|auto_generated|l1_w2_n0_mux_dataout~0_combout $end
$var wire 1 c inst|C|inst4~q $end
$var wire 1 d inst|inst9|$00000|auto_generated|l1_w2_n0_mux_dataout~0_combout $end
$var wire 1 e inst|inst3|inst1|inst3|inst5~0_combout $end
$var wire 1 f inst|inst3|inst6|$00000|auto_generated|l1_w3_n0_mux_dataout~0_combout $end
$var wire 1 g inst|A|inst3~q $end
$upscope $end
$upscope $end
$enddefinitions $end
#0
$dumpvars
0!
1"
1#
0$
0%
0&
0'
b1 (
0,
0+
0*
0)
00
0/
0.
0-
04
03
02
01
05
16
x7
18
19
1:
0;
0<
0=
0>
0?
1@
0A
1B
0C
0D
0E
0F
0G
0H
0I
0J
1K
0L
1M
0N
0O
0P
0Q
1R
0S
1T
0U
0V
0W
0X
0Y
0Z
0[
0\
0]
0^
0_
0`
0a
0b
0c
0d
0e
0f
0g
$end
#50000
1'
1<
1=
1N
1,
1Y
1O
#100000
b11 (
b10 (
1!
0'
0K
1U
1C
0<
0=
0Y
0O
0M
1E
1\
0T
0R
1Z
#150000
1'
1<
1=
1W
1/
1X
1a
#200000
b110 (
1&
b100 (
0'
0U
1]
1D
0<
0=
0X
1G
0E
1`
0\
0a
0Z
1b
#250000
1'
1<
1=
1c
12
1d
1e
#300000
1%
0#
0"
b0 (
0&
0'
1>
0@
0B
0]
0D
0<
0=
0d
1X
0G
1E
0`
1T
1f
0b
0e
1R
1Z
0f
#350000
1'
1<
1=
1S
10
1Y
1L
0R
1a
0Z
1b
#400000
1$
b1000 (
b1010 (
1"
1&
0'
1?
1U
1A
1B
1D
0<
0=
1d
0Y
0X
0L
1G
0E
1\
1R
0b
0a
0R
#450000
1'
1<
1=
0c
02
0d
#500000
0%
0$
b10 (
b0 (
0'
0>
0?
0U
0A
0<
0=
1R
1Z
#550000
1'
1<
1=
1V
1P
14
13
1Y
1Q
1X
1a
#600000
0!
1#
0&
1%
b1000 (
0'
0C
1@
0D
1>
1A
0<
0=
1I
0R
0X
0Q
1O
1M
0G
0\
0T
1b
0a
1R
1f
0Z
0b
#650000
1'
1<
1=
1g
1)
1J
0f
#700000
0"
1$
1!
0#
b0 (
0'
0B
1?
1C
0@
0A
0<
0=
1T
1X
0O
0M
1L
0J
1E
1f
0R
0f
1R
1a
#750000
1'
1<
1=
0W
0/
0X
0a
#800000
b100 (
0$
1#
0'
1]
0?
1@
0<
0=
1\
0I
1f
0R
1Z
0f
1a
0Z
1b
#840000
b101 (
1K
#850000
1'
1<
1=
1_
0S
00
1.
0Y
0L
1d
1R
0a
0b
1Z
1b
#880000
b111 (
b110 (
0K
1U
#900000
0%
1"
0!
0'
0>
1B
0C
0<
0=
0d
1Y
1O
1M
1J
0E
1`
0T
0b
0R
1b
#920000
b111 (
1K
1T
1e
1a
1R
#950000
1'
1<
1=
0g
1^
1[
1+
1*
0)
1X
1d
0J
#960000
b1111 (
b1011 (
b1001 (
b1000 (
0K
0U
0]
1A
1I
0`
0\
0T
0e
0a
0R
1f
0Z
0b
