simulation/qsim/Reg.msim.vcd
$comment
	File created using the following command:
		vcd file Reg.msim.vcd -direction
$end
$date
	Sun Oct 31 15:18:59 2021
$end
$version
	ModelSim Version 2020.1
$end
$timescale
	1ps
$end

$scope module Reg_vlg_vec_tst $end
$var reg 4 ! arr [3:0] $end
$var reg 1 " clk $end
$var reg 1 # selector $end
$var wire 1 $ out [3] $end
$var wire 1 % out [2] $end
$var wire 1 & out [1] $end
$var wire 1 ' out [0] $end

$scope module i1 $end
$var wire 1 ( gnd $end
$var wire 1 ) vcc $end
$var wire 1 * unknown $end
$var tri1 1 + devclrn $end
$var tri1 1 , devpor $end
$var tri1 1 - devoe $end
$var wire 1 . out[3]~output_o $end
$var wire 1 / out[2]~output_o $end
$var wire 1 0 out[1]~output_o $end
$var wire 1 1 out[0]~output_o $end
$var wire 1 2 clk~input_o $end
$var wire 1 3 arr[3]~input_o $end
$var wire 1 4 selector~input_o $end
$var wire 1 5 inst3~q $end
$var wire 1 6 arr[2]~input_o $end
$var wire 1 7 inst4~q $end
$var wire 1 8 arr[1]~input_o $end
$var wire 1 9 inst7~q $end
$var wire 1 : arr[0]~input_o $end
$var wire 1 ; inst6~q $end
$upscope $end
$upscope $end
$enddefinitions $end
#0
$dumpvars
b1100 !
0"
1#
0'
0&
0%
0$
0(
1)
x*
1+
1,
1-
0.
0/
00
01
02
13
14
05
16
07
08
09
0:
0;
$end
#20000
1"
12
17
15
1.
1/
1%
1$
#40000
b1110 !
b1111 !
0"
1:
18
02
#60000
1"
12
1;
19
10
11
1'
1&
#80000
b111 !
b11 !
0#
b1 !
b0 !
0"
04
0:
08
06
03
02
#100000
1"
12
#120000
0"
02
#140000
1"
12
#160000
b100 !
1#
0"
14
16
02
#180000
1"
12
0;
09
05
0.
00
01
0'
0&
0$
#200000
0#
0"
04
02
#220000
1"
12
#240000
b0 !
1#
0"
14
06
02
#260000
1"
12
07
0/
0%
#280000
0#
0"
04
02
#300000
1"
12
#320000
0"
02
#340000
1"
12
#360000
b1000 !
b1010 !
b1110 !
0"
18
16
13
02
#380000
1"
12
#400000
b1111 !
1#
0"
14
1:
02
#420000
1"
12
1;
19
17
15
1.
1/
10
11
1'
1&
1%
1$
#440000
b111 !
b101 !
b1 !
b0 !
0"
0:
08
06
03
02
#460000
1"
12
0;
09
07
05
0.
0/
00
01
0'
0&
0%
0$
#480000
0#
0"
04
02
#500000
1"
12
#520000
0"
02
#540000
1"
12
#560000
0"
02
#580000
1"
12
#600000
0"
02
#620000
1"
12
#640000
0"
02
#660000
1"
12
#680000
0"
02
#700000
1"
12
#720000
0"
02
#740000
1"
12
#760000
0"
02
#780000
1"
12
#800000
0"
02
#820000
1"
12
#840000
0"
02
#860000
1"
12
#880000
0"
02
#900000
1"
12
#920000
0"
02
#940000
1"
12
#960000
0"
02
#980000
1"
12
